<svg
 xmlns="http://www.w3.org/2000/svg"
 xmlns:xlink="http://www.w3.org/1999/xlink"
 width="22px" height="28px">
<path fill-rule="evenodd"  fill="rgb(255, 255, 255)"
 d="M18.039,10.816 L18.036,10.815 C20.105,12.374 21.204,14.505 21.204,16.980 C21.204,21.674 17.120,26.259 12.465,26.792 L11.739,26.874 L12.277,26.377 C13.708,25.054 14.497,23.368 14.497,21.636 L14.497,13.662 C14.497,11.344 12.786,10.222 10.650,9.933 C10.608,9.928 10.566,9.920 10.524,9.915 C10.457,9.907 10.388,9.902 10.320,9.896 C6.758,9.581 4.000,11.277 4.000,11.277 L11.408,2.805 C12.116,1.898 11.913,1.155 11.913,1.155 C11.766,0.487 10.989,0.116 10.766,0.025 L10.703,-0.001 L20.968,-0.001 L13.253,8.815 C15.058,9.138 16.710,9.814 18.039,10.816 ZM3.939,1.966 C4.440,2.369 4.564,2.578 4.564,2.578 C5.068,3.129 5.068,3.981 5.068,3.981 C5.068,5.323 4.068,6.361 2.727,6.361 L2.727,6.360 C1.361,6.360 -0.000,5.323 -0.000,3.737 C-0.000,1.693 2.130,0.254 4.591,-0.001 C3.774,0.282 3.682,0.969 3.682,0.969 C3.588,1.419 3.652,1.735 3.939,1.966 ZM3.896,17.000 C6.251,17.000 8.007,18.729 8.007,20.967 C8.007,20.967 8.007,22.389 7.121,23.306 C7.121,23.306 6.903,23.656 6.022,24.327 L6.024,24.329 C5.521,24.713 5.408,25.238 5.575,25.989 C5.575,25.989 5.738,27.137 7.169,27.607 C2.848,27.182 -0.000,24.782 -0.000,21.375 C-0.000,18.731 1.498,17.000 3.896,17.000 Z"/>
</svg>
